elvis@perlmutter:login10:~/checkpoint-restart/dmtcp/examples> sbatch perlmutter-cpu-dmtcp.sh
Submitted batch job 11624834
elvis@perlmutter:login10:~/checkpoint-restart/dmtcp/examples> sqs
JOBID            ST USER      NAME          NODES TIME_LIMIT       TIME  SUBMIT_TIME          QOS             START_TIME           FEATURES       NODELIST(REASON
11624834         R  elvis     test_cr       1          10:00       0:03  2023-07-14T14:35:33  debug           2023-07-14T14:35:34  cpu            nid005286
elvis@perlmutter:login10:~/checkpoint-restart/dmtcp/examples> ls
ckpt_bash_4f512f17714b4ac4-40000-6a383db3e8d8.dmtcp  ckpt_sleep_4f512f17714b4ac4-62000-64b1c153.dmtcp         dmtcp_restart_script.sh      perlmutter-cpu-dmtcp-vt.sh
ckpt_sleep_4f512f17714b4ac4-50000-64b1bfe6.dmtcp     ckpt_sleep_4f512f17714b4ac4-66000-64b1c1cc.dmtcp         payload.sh               test_cr-11624834.err
ckpt_sleep_4f512f17714b4ac4-54000-64b1c060.dmtcp     dmtcp_command.11624834                   perlmutter-cpu-dmtcp-restart.sh  test_cr-11624834.out
ckpt_sleep_4f512f17714b4ac4-58000-64b1c0d9.dmtcp     dmtcp_restart_script_4f512f17714b4ac4-40000-6a3839c2e003.sh  perlmutter-cpu-dmtcp.sh
elvis@perlmutter:login10:~/checkpoint-restart/dmtcp/examples> cat test_cr-11624834.*
slurmstepd: error: *** JOB 11624834 ON nid005286 CANCELLED AT 2023-07-14T21:45:46 DUE TO TIME LIMIT ***
step 1
Fri 14 Jul 2023 02:35:38 PM PDT
step 2
Fri 14 Jul 2023 02:36:38 PM PDT
step 3
Fri 14 Jul 2023 02:37:39 PM PDT
step 4
Fri 14 Jul 2023 02:38:40 PM PDT
step 5
Fri 14 Jul 2023 02:39:40 PM PDT
step 6
Fri 14 Jul 2023 02:40:41 PM PDT
step 7
Fri 14 Jul 2023 02:41:42 PM PDT
step 8
Fri 14 Jul 2023 02:42:43 PM PDT
step 9
Fri 14 Jul 2023 02:43:43 PM PDT
step 10
Fri 14 Jul 2023 02:44:44 PM PDT
step 11
Fri 14 Jul 2023 02:45:45 PM PDT

